^C:\USERS\JAMES\DOCUMENTS\02-JUCE-BASIC-WINDOW\JUCELIBRARYCODE\JUCE_AUDIO_BASICS.CPP|C:\USERS\JAMES\DOCUMENTS\02-JUCE-BASIC-WINDOW\JUCELIBRARYCODE\JUCE_AUDIO_DEVICES.CPP|C:\USERS\JAMES\DOCUMENTS\02-JUCE-BASIC-WINDOW\JUCELIBRARYCODE\JUCE_AUDIO_FORMATS.CPP|C:\USERS\JAMES\DOCUMENTS\02-JUCE-BASIC-WINDOW\JUCELIBRARYCODE\JUCE_AUDIO_PROCESSORS.CPP|C:\USERS\JAMES\DOCUMENTS\02-JUCE-BASIC-WINDOW\JUCELIBRARYCODE\JUCE_AUDIO_UTILS.CPP|C:\USERS\JAMES\DOCUMENTS\02-JUCE-BASIC-WINDOW\JUCELIBRARYCODE\JUCE_CORE.CPP|C:\USERS\JAMES\DOCUMENTS\02-JUCE-BASIC-WINDOW\JUCELIBRARYCODE\JUCE_DATA_STRUCTURES.CPP|C:\USERS\JAMES\DOCUMENTS\02-JUCE-BASIC-WINDOW\JUCELIBRARYCODE\JUCE_EVENTS.CPP|C:\USERS\JAMES\DOCUMENTS\02-JUCE-BASIC-WINDOW\JUCELIBRARYCODE\JUCE_GRAPHICS.CPP|C:\USERS\JAMES\DOCUMENTS\02-JUCE-BASIC-WINDOW\JUCELIBRARYCODE\JUCE_GUI_BASICS.CPP|C:\USERS\JAMES\DOCUMENTS\02-JUCE-BASIC-WINDOW\JUCELIBRARYCODE\JUCE_GUI_EXTRA.CPP|C:\USERS\JAMES\DOCUMENTS\02-JUCE-BASIC-WINDOW\SOURCE\MAIN.CPP|C:\USERS\JAMES\DOCUMENTS\02-JUCE-BASIC-WINDOW\SOURCE\MAINCOMPONENT.CPP
C:\USERS\JAMES\DOCUMENTS\02-JUCE-BASIC-WINDOW\BUILDS\VISUALSTUDIO2015\DEBUG\MAINCOMPONENT.OBJ
C:\USERS\JAMES\DOCUMENTS\02-JUCE-BASIC-WINDOW\BUILDS\VISUALSTUDIO2015\DEBUG\JUCE_GUI_BASICS.OBJ
C:\USERS\JAMES\DOCUMENTS\02-JUCE-BASIC-WINDOW\BUILDS\VISUALSTUDIO2015\DEBUG\MAIN.OBJ
C:\USERS\JAMES\DOCUMENTS\02-JUCE-BASIC-WINDOW\BUILDS\VISUALSTUDIO2015\DEBUG\JUCE_GRAPHICS.OBJ
C:\USERS\JAMES\DOCUMENTS\02-JUCE-BASIC-WINDOW\BUILDS\VISUALSTUDIO2015\DEBUG\JUCE_AUDIO_DEVICES.OBJ
C:\USERS\JAMES\DOCUMENTS\02-JUCE-BASIC-WINDOW\BUILDS\VISUALSTUDIO2015\DEBUG\JUCE_EVENTS.OBJ
C:\USERS\JAMES\DOCUMENTS\02-JUCE-BASIC-WINDOW\BUILDS\VISUALSTUDIO2015\DEBUG\JUCE_CORE.OBJ
C:\USERS\JAMES\DOCUMENTS\02-JUCE-BASIC-WINDOW\BUILDS\VISUALSTUDIO2015\DEBUG\JUCE_GUI_EXTRA.OBJ
C:\USERS\JAMES\DOCUMENTS\02-JUCE-BASIC-WINDOW\BUILDS\VISUALSTUDIO2015\DEBUG\JUCE_AUDIO_BASICS.OBJ
C:\USERS\JAMES\DOCUMENTS\02-JUCE-BASIC-WINDOW\BUILDS\VISUALSTUDIO2015\DEBUG\JUCE_DATA_STRUCTURES.OBJ
C:\USERS\JAMES\DOCUMENTS\02-JUCE-BASIC-WINDOW\BUILDS\VISUALSTUDIO2015\DEBUG\JUCE_AUDIO_FORMATS.OBJ
C:\USERS\JAMES\DOCUMENTS\02-JUCE-BASIC-WINDOW\BUILDS\VISUALSTUDIO2015\DEBUG\JUCE_AUDIO_UTILS.OBJ
C:\USERS\JAMES\DOCUMENTS\02-JUCE-BASIC-WINDOW\BUILDS\VISUALSTUDIO2015\DEBUG\JUCE_AUDIO_PROCESSORS.OBJ
^C:\USERS\JAMES\DOCUMENTS\02-JUCE-BASIC-WINDOW\JUCELIBRARYCODE\JUCE_AUDIO_BASICS.CPP
C:\USERS\JAMES\DOCUMENTS\02-JUCE-BASIC-WINDOW\BUILDS\VISUALSTUDIO2015\DEBUG\VC140.PDB
^C:\USERS\JAMES\DOCUMENTS\02-JUCE-BASIC-WINDOW\JUCELIBRARYCODE\JUCE_AUDIO_DEVICES.CPP
C:\USERS\JAMES\DOCUMENTS\02-JUCE-BASIC-WINDOW\BUILDS\VISUALSTUDIO2015\DEBUG\VC140.PDB
^C:\USERS\JAMES\DOCUMENTS\02-JUCE-BASIC-WINDOW\JUCELIBRARYCODE\JUCE_AUDIO_FORMATS.CPP
C:\USERS\JAMES\DOCUMENTS\02-JUCE-BASIC-WINDOW\BUILDS\VISUALSTUDIO2015\DEBUG\VC140.PDB
^C:\USERS\JAMES\DOCUMENTS\02-JUCE-BASIC-WINDOW\JUCELIBRARYCODE\JUCE_AUDIO_PROCESSORS.CPP
C:\USERS\JAMES\DOCUMENTS\02-JUCE-BASIC-WINDOW\BUILDS\VISUALSTUDIO2015\DEBUG\VC140.PDB
^C:\USERS\JAMES\DOCUMENTS\02-JUCE-BASIC-WINDOW\JUCELIBRARYCODE\JUCE_AUDIO_UTILS.CPP
C:\USERS\JAMES\DOCUMENTS\02-JUCE-BASIC-WINDOW\BUILDS\VISUALSTUDIO2015\DEBUG\VC140.PDB
^C:\USERS\JAMES\DOCUMENTS\02-JUCE-BASIC-WINDOW\JUCELIBRARYCODE\JUCE_CORE.CPP
C:\USERS\JAMES\DOCUMENTS\02-JUCE-BASIC-WINDOW\BUILDS\VISUALSTUDIO2015\DEBUG\VC140.PDB
^C:\USERS\JAMES\DOCUMENTS\02-JUCE-BASIC-WINDOW\JUCELIBRARYCODE\JUCE_DATA_STRUCTURES.CPP
C:\USERS\JAMES\DOCUMENTS\02-JUCE-BASIC-WINDOW\BUILDS\VISUALSTUDIO2015\DEBUG\VC140.PDB
^C:\USERS\JAMES\DOCUMENTS\02-JUCE-BASIC-WINDOW\JUCELIBRARYCODE\JUCE_EVENTS.CPP
C:\USERS\JAMES\DOCUMENTS\02-JUCE-BASIC-WINDOW\BUILDS\VISUALSTUDIO2015\DEBUG\VC140.PDB
^C:\USERS\JAMES\DOCUMENTS\02-JUCE-BASIC-WINDOW\JUCELIBRARYCODE\JUCE_GRAPHICS.CPP
C:\USERS\JAMES\DOCUMENTS\02-JUCE-BASIC-WINDOW\BUILDS\VISUALSTUDIO2015\DEBUG\VC140.PDB
^C:\USERS\JAMES\DOCUMENTS\02-JUCE-BASIC-WINDOW\JUCELIBRARYCODE\JUCE_GUI_BASICS.CPP
C:\USERS\JAMES\DOCUMENTS\02-JUCE-BASIC-WINDOW\BUILDS\VISUALSTUDIO2015\DEBUG\VC140.PDB
^C:\USERS\JAMES\DOCUMENTS\02-JUCE-BASIC-WINDOW\JUCELIBRARYCODE\JUCE_GUI_EXTRA.CPP
C:\USERS\JAMES\DOCUMENTS\02-JUCE-BASIC-WINDOW\BUILDS\VISUALSTUDIO2015\DEBUG\VC140.PDB
^C:\USERS\JAMES\DOCUMENTS\02-JUCE-BASIC-WINDOW\SOURCE\MAIN.CPP|C:\USERS\JAMES\DOCUMENTS\02-JUCE-BASIC-WINDOW\SOURCE\MAINCOMPONENT.CPP
C:\USERS\JAMES\DOCUMENTS\02-JUCE-BASIC-WINDOW\BUILDS\VISUALSTUDIO2015\DEBUG\MAINCOMPONENT.OBJ
C:\USERS\JAMES\DOCUMENTS\02-JUCE-BASIC-WINDOW\BUILDS\VISUALSTUDIO2015\DEBUG\MAIN.OBJ
^C:\USERS\JAMES\DOCUMENTS\02-JUCE-BASIC-WINDOW\SOURCE\MAIN.CPP
C:\USERS\JAMES\DOCUMENTS\02-JUCE-BASIC-WINDOW\BUILDS\VISUALSTUDIO2015\DEBUG\VC140.PDB
^C:\USERS\JAMES\DOCUMENTS\02-JUCE-BASIC-WINDOW\SOURCE\MAINCOMPONENT.CPP
C:\USERS\JAMES\DOCUMENTS\02-JUCE-BASIC-WINDOW\BUILDS\VISUALSTUDIO2015\DEBUG\VC140.PDB
C:\USERS\JAMES\DOCUMENTS\02-JUCE-BASIC-WINDOW\BUILDS\VISUALSTUDIO2015\DEBUG\VC140.IDB
C:\USERS\JAMES\DOCUMENTS\02-JUCE-BASIC-WINDOW\BUILDS\VISUALSTUDIO2015\DEBUG\MAINCOMPONENT.OBJ
